{
    "KPlugin": {
        "Name": "Filter to export KPR files to ODP",
        "Name[ca@valencia]": "Filtre per a exportar fitxers KPR a ODP",
        "Name[ca]": "Filtre per a exportar fitxers KPR a ODP",
        "Name[cs]": "Filtr pro export souborů KPR do ODP",
        "Name[en_GB]": "Filter to export KPR files to ODP",
        "Name[eo]": "Filtrilo por eksporti KPR-dosierojn al ODP",
        "Name[es]": "Filtro para exportar archivos KPR a ODP",
        "Name[fr]": "Filtre pour exporter des fichiers du format « KPR » vers « ODP »",
        "Name[gl]": "Filtro de exportación de ficheiros KPR a ODP",
        "Name[it]": "Filtro per esportare i file KPR a ODP",
        "Name[ka]": "KPR ფაილების ODP-ში გატანის ფილტრი",
        "Name[lv]": "Filtrs KPR datņu eksportam uz ODP",
        "Name[nl]": "Filter om KPR-bestanden naar ODP te exporteren",
        "Name[pl]": "Filtr eksportu plików KPR do ODP",
        "Name[sl]": "Filter za izvoz datotek KPR v ODP",
        "Name[tr]": "KPR Dosyalarını ODP Olarak Dışa Aktarmak için Süzgeç",
        "Name[uk]": "Фільтр для експорту файлів KPR у ODP",
        "Name[x-test]": "xxFilter to export KPR files to ODPxx",
        "Name[zh_TW]": "將 KPR 檔匯出成 ODP 檔的過濾器",
        "ServiceTypes": [
            "Calligra/Filter"
        ]
    },
    "X-KDE-Export": "application/vnd.oasis.opendocument.presentation",
    "X-KDE-Import": "application/x-kpresenter",
    "X-KDE-Weight": 1
}
