{
    "KPlugin": {
        "Icon": "calligrawords",
        "MimeTypes": [
            "application/vnd.oasis.opendocument.text-master",
            "application/vnd.oasis.opendocument.text",
            "application/vnd.oasis.opendocument.text-template",
            "application/msword",
            "application/rtf",
            "application/x-mswrite",
            "application/vnd.openxmlformats-officedocument.wordprocessingml.document",
            "application/vnd.openxmlformats-officedocument.wordprocessingml.template",
            "application/vnd.ms-works",
            "application/vnd.wordperfect"
        ],
        "Name": "Calligra Word Processing Component",
        "Name[ca@valencia]": "Component de processament de textos de Calligra",
        "Name[ca]": "Component de processament de textos del Calligra",
        "Name[cs]": "Komponenta Calligra pro zpracování textu",
        "Name[en_GB]": "Calligra Word Processing Component",
        "Name[eo]": "Calligra Vorttraktado Komponanto",
        "Name[es]": "Componente de procesamiento de textos de Calligra",
        "Name[fr]": "Composant de traitement de texte de Calligra",
        "Name[gl]": "Compoñente para Calligra de procesamento de texto",
        "Name[it]": "Componente di Calligra Word",
        "Name[ka]": "Calligra Word Processing-ის კომპონენტი",
        "Name[lv]": "„Calligra“ „Word“ apstrādes komponente",
        "Name[nl]": "Component voor Calligra tekstverwerking",
        "Name[pl]": "Składnik edytora tekstu dla Calligry",
        "Name[sl]": "Komponenta Calligra obdelovalnika besedil",
        "Name[tr]": "Calligra Sözcük İşleme Bileşeni",
        "Name[uk]": "Компонент текстового редактора Calligra",
        "Name[x-test]": "xxCalligra Word Processing Componentxx",
        "Name[zh_TW]": "Calligra 文書處理組件",
        "ServiceTypes": [
            "Calligra/Part"
        ]
    },
    "MimeType": "application/vnd.oasis.opendocument.text-master;application/vnd.oasis.opendocument.text;application/vnd.oasis.opendocument.text-template;application/msword;application/rtf;application/x-mswrite;application/vnd.openxmlformats-officedocument.wordprocessingml.document;application/vnd.openxmlformats-officedocument.wordprocessingml.template;application/vnd.ms-works;application/vnd.wordperfect;",
    "X-KDE-ExtraNativeMimeTypes": "application/vnd.oasis.opendocument.text-master,application/vnd.oasis.opendocument.text-template",
    "X-KDE-NativeMimeType": "application/vnd.oasis.opendocument.text",
    "X-KDE-NativeOasisMimeType": "application/vnd.oasis.opendocument.text"
}
