{
    "KPlugin": {
        "Name": "Sheets Solver Plugin",
        "Name[ca@valencia]": "Connector solucionador de Sheets",
        "Name[ca]": "Connector solucionador del Sheets",
        "Name[en_GB]": "Sheets Solver Plugin",
        "Name[eo]": "Folio-Solva Kromprogramo",
        "Name[es]": "Complemento de resolución de hojas",
        "Name[fr]": "Module externe pour le résolveur de Sheets",
        "Name[gl]": "Complemento de resolución para Sheets",
        "Name[it]": "Estensione Solutore di Sheets",
        "Name[ka]": "Sheets-ის ამომხსნელის დამატება",
        "Name[lv]": "„Sheets“ atrisinātāja spraudnis",
        "Name[nl]": "Plug-in voor Sheet oplosser",
        "Name[pl]": "Wtyczka solwera dla Arkuszy",
        "Name[sl]": "Vtičnik reševalnika preglednic",
        "Name[tr]": "Tablolar Çözücü Eklentisi",
        "Name[uk]": "Додаток розв’язання задач для Sheets",
        "Name[x-test]": "xxSheets Solver Pluginxx",
        "Name[zh_TW]": "Sheets Solver 外掛程式",
        "ServiceTypes": [
            "Sheets/ViewPlugin"
        ]
    },
    "X-Sheets-Version": "28"
}
