{
    "KPlugin": {
        "Name": "Karbon Round Corners plugin",
        "Name[ca@valencia]": "Connector de cantons arredonits de Karbon",
        "Name[ca]": "Connector de cantonades arrodonides del Karbon",
        "Name[en_GB]": "Karbon Round Corners plugin",
        "Name[eo]": "Kromaĵo de Karbon Round Corners",
        "Name[es]": "Complemento redondear esquinas de Karbon",
        "Name[fr]": "Module externe de coins arrondis pour Karbon",
        "Name[gl]": "Complemento de esquinas redondas para Karbon",
        "Name[it]": "Estensione Angoli arrotondati di Karbon",
        "Name[ka]": "Karbon -ის კუთხეების მომრგვალების დამატება",
        "Name[lv]": "„Karbon“ stūru noapaļošanas spraudnis",
        "Name[nl]": "Plug-in voor Karbon ronde hoeken",
        "Name[pl]": "Wtyczka zaokrąglania narożników dla Karbon",
        "Name[sl]": "Vtičnik Karbon Round Corners",
        "Name[tr]": "Karbon Köşeleri Yuvarla Eklentisi",
        "Name[uk]": "Додаток скруглення кутів для Karbon",
        "Name[x-test]": "xxKarbon Round Corners pluginxx",
        "Name[zh_TW]": "Karbon 《圓角》外掛程式",
        "ServiceTypes": [
            "Karbon/ViewPlugin"
        ]
    },
    "X-Karbon-Version": "28"
}
