{
    "KPlugin": {
        "Authors": [
            {
                "Email": "sven.langkamp@gmail.com",
                "Name": "Sven Langkamp",
                "Name[ca@valencia]": "Sven Langkamp",
                "Name[ca]": "Sven Langkamp",
                "Name[cs]": "Sven Langkamp",
                "Name[de]": "Sven Langkamp",
                "Name[el]": "Sven Langkamp",
                "Name[en_GB]": "Sven Langkamp",
                "Name[eo]": "Sven Langkamp",
                "Name[es]": "Sven Langkamp",
                "Name[et]": "Sven Langkamp",
                "Name[eu]": "Sven Langkamp",
                "Name[fi]": "Sven Langkamp",
                "Name[fr]": "Sven Langkamp",
                "Name[gl]": "Sven Langkamp",
                "Name[ia]": "Sven Langkamp",
                "Name[id]": "Sven Langkamp",
                "Name[it]": "Sven Langkamp",
                "Name[ka]": "Sven Langkamp",
                "Name[ko]": "Sven Langkamp",
                "Name[lv]": "Sven Langkamp",
                "Name[nl]": "Sven Langkamp",
                "Name[pl]": "Sven Langkamp",
                "Name[pt]": "Sven Langkamp",
                "Name[pt_BR]": "Sven Langkamp",
                "Name[ru]": "Sven Langkamp",
                "Name[sk]": "Sven Langkamp",
                "Name[sl]": "Sven Langkamp",
                "Name[sv]": "Sven Langkamp",
                "Name[tr]": "Sven Langkamp",
                "Name[uk]": "Sven Langkamp",
                "Name[x-test]": "xxSven Langkampxx",
                "Name[zh_CN]": "Sven Langkamp",
                "Name[zh_TW]": "Sven Langkamp"
            },
            {
                "Email": "kossebau@kde.org",
                "Name": "Friedrich W. H. Kossebau",
                "Name[ca@valencia]": "Friedrich W. H. Kossebau",
                "Name[ca]": "Friedrich W. H. Kossebau",
                "Name[cs]": "Friedrich W. H. Kossebau",
                "Name[de]": "Friedrich W. H. Kossebau",
                "Name[el]": "Friedrich W. H. Kossebau",
                "Name[en_GB]": "Friedrich W. H. Kossebau",
                "Name[eo]": "Friedrich W. H. Kossebau",
                "Name[es]": "Friedrich W. H. Kossebau",
                "Name[et]": "Friedrich W. H. Kossebau",
                "Name[eu]": "Friedrich W. H. Kossebau",
                "Name[fi]": "Friedrich W. H. Kossebau",
                "Name[fr]": "Friedrich W. H. Kossebau",
                "Name[gl]": "Friedrich W. H. Kossebau",
                "Name[ia]": "Friedrich W. H. Kossebau",
                "Name[id]": "Friedrich W. H. Kossebau",
                "Name[it]": "Friedrich W. H. Kossebau",
                "Name[ka]": "ფრიდრიჰ კოსებაუ",
                "Name[ko]": "Friedrich W. H. Kossebau",
                "Name[lv]": "Friedrich W. H. Kossebau",
                "Name[nl]": "Friedrich W. H. Kossebau",
                "Name[pl]": "Friedrich W. H. Kossebau",
                "Name[pt]": "Friedrich W. H. Kossebau",
                "Name[pt_BR]": "Friedrich W. H. Kossebau",
                "Name[ru]": "Friedrich W. H. Kossebau",
                "Name[sk]": "Friedrich W. H. Kossebau",
                "Name[sl]": "Friedrich W. H. Kossebau",
                "Name[sv]": "Friedrich W. H. Kossebau",
                "Name[tr]": "Friedrich W. H. Kossebau",
                "Name[uk]": "Friedrich W. H. Kossebau",
                "Name[x-test]": "xxFriedrich W. H. Kossebauxx",
                "Name[zh_CN]": "Friedrich W. H. Kossebau",
                "Name[zh_TW]": "Friedrich W. H. Kossebau"
            }
        ],
        "Copyright": "Copyright 2012-2016 Sven Langkamp, Friedrich W. H. Kossebau",
        "Copyright[ca@valencia]": "Copyright 2012-2016 Sven Langkamp, Friedrich W. H. Kossebau",
        "Copyright[ca]": "Copyright 2012-2016 Sven Langkamp, Friedrich W. H. Kossebau",
        "Copyright[cs]": "Autorská práva 2012-2016 Sven Langkamp, Friedrich W. H. Kossebau",
        "Copyright[de]": "Copyright 2012-2016 Sven Langkamp, Friedrich W. H. Kossebau",
        "Copyright[el]": "Copyright 2012-2016 Sven Langkamp, Friedrich W. H. Kossebau",
        "Copyright[en_GB]": "Copyright 2012-2016 Sven Langkamp, Friedrich W. H. Kossebau",
        "Copyright[eo]": "Kopirajto 2012-2016 Sven Langkamp, Friedrich W. H. Kossebau",
        "Copyright[es]": "Copyright 2012-2016 Sven Langkamp, Friedrich W. H. Kossebau",
        "Copyright[et]": "Autoriõigus 2012-2016: Sven Langkamp, Friedrich W. H. Kossebau",
        "Copyright[eu]": "Copyright 2012-2016 Sven Langkamp, Friedrich W. H. Kossebau",
        "Copyright[fi]": "Copyright 2012–2016 Sven Langkamp, Friedrich W. H. Kossebau",
        "Copyright[fr]": "Copyright 2012-2016 Sven Langkamp, Friedrich W. H. Kossebau",
        "Copyright[gl]": "© 2012-2016 Sven Langkamp, Friedrich W. H. Kossebau",
        "Copyright[ia]": "Copyright 2012-2016 Sven Langkamp, Friedrich W. H. Kossebau",
        "Copyright[id]": "Hakcipta 2012-2016 Sven Langkamp, Friedrich W. H. Kossebau",
        "Copyright[it]": "Copyright 2012-2016 Sven Langkamp, Friedrich W. H. Kossebau",
        "Copyright[ka]": "Copyright 2012-2016 Sven Langkamp, Friedrich W. H. Kossebau",
        "Copyright[ko]": "Copyright 2012-2016 Sven Langkamp, Friedrich W. H. Kossebau",
        "Copyright[lv]": "Autortiesības 2012—2016 Sven Langkamp, Friedrich W. H. Kossebau",
        "Copyright[nl]": "Copyright 2012-2016 Sven Langkamp, Friedrich W. H. Kossebau",
        "Copyright[pl]": "Copyright 2012-2016 Sven Langkamp, Friedrich W. H. Kossebau",
        "Copyright[pt]": "Copyright 2012-2016 Sven Langkamp, Friedrich W. H. Kossebau",
        "Copyright[pt_BR]": "Copyright 2012-2016 Sven Langkamp, Friedrich W. H. Kossebau",
        "Copyright[ru]": "© Sven Langkamp, Friedrich W. H. Kossebau, 2012-2016",
        "Copyright[sk]": "Copyright 2012-2016 Sven Langkamp, Friedrich W. H. Kossebau",
        "Copyright[sl]": "Copyright 2012-2016 Sven Langkamp, Friedrich W. H. Kossebau",
        "Copyright[sv]": "Copyright 2012-2016 Sven Langkamp, Friedrich W. H. Kossebau",
        "Copyright[tr]": "Telif hakkı 2012-2016 Sven Langkamp, Friedrich W. H. Kossebau",
        "Copyright[uk]": "© Sven Langkamp, Friedrich W. H. Kossebau, 2012–2016",
        "Copyright[x-test]": "xxCopyright 2012-2016 Sven Langkamp, Friedrich W. H. Kossebauxx",
        "Copyright[zh_CN]": "Copyright 2012-2016 Sven Langkamp, Friedrich W. H. Kossebau",
        "Copyright[zh_TW]": "Copyright 2012-2016 Sven Langkamp, Friedrich W. H. Kossebau",
        "Description": "DOC file renderer",
        "Description[ca@valencia]": "Representació de fitxers DOC",
        "Description[ca]": "Representació de fitxers DOC",
        "Description[cs]": "Vykreslovač souborů DOC",
        "Description[de]": "Renderer für DOC-Dateien",
        "Description[el]": "Άρθρωμα αποτύπωσης DOC αρχείου",
        "Description[en_GB]": "DOC file renderer",
        "Description[eo]": "DOC-dosiera bildigilo",
        "Description[es]": "Motor de visualización para archivos DOC",
        "Description[et]": "DOC-faili renderdaja",
        "Description[eu]": "DOC-fitxategi errendatzailea",
        "Description[fi]": "DOC-tiedostohahmonnin",
        "Description[fr]": "Rendu de fichiers DOC",
        "Description[gl]": "Renderizador de ficheiros DOC.",
        "Description[id]": "Perender file DOC",
        "Description[it]": "Presentatore file DOC",
        "Description[ka]": "DOC ფაილის რენდერერი",
        "Description[ko]": "DOC 파일 렌더러",
        "Description[lv]": "DOC datnes atveidotājs",
        "Description[nl]": "DOC-bestandsweergave",
        "Description[pl]": "Wyświetlanie pliku DOC",
        "Description[pt]": "Visualizador de ficheiros DOC",
        "Description[pt_BR]": "Renderização de arquivos DOC",
        "Description[ru]": "Средство визуализации файла формата DOC",
        "Description[sk]": "Zobrazovač súborov DOC",
        "Description[sl]": "Prikazovalnik besedilnih datotek DOC",
        "Description[sv]": "DOC-filåtergivning",
        "Description[tr]": "DOC dosyası sunucu",
        "Description[uk]": "Засіб показу вмісту файлів DOC",
        "Description[x-test]": "xxDOC file rendererxx",
        "Description[zh_CN]": "DOC 文件渲染器",
        "Description[zh_TW]": "DOC 檔案繪製器",
        "Id": "okularGenerator_doc_calligra",
        "License": "GPL",
        "MimeTypes": [
            "application/msword"
        ],
        "Name": "DOC Backend",
        "Name[ca@valencia]": "Dorsal de DOC",
        "Name[ca]": "Dorsal de DOC",
        "Name[cs]": "Podpůrná vrstva DOC",
        "Name[de]": "DOC-Backend",
        "Name[el]": "Σύστημα υποστήριξης DOC",
        "Name[en_GB]": "DOC Backend",
        "Name[eo]": "DOC-Backend",
        "Name[es]": "Motor DOC",
        "Name[et]": "DOC taustaprogramm",
        "Name[eu]": "DOC bizkarraldekoa",
        "Name[fi]": "DOC-taustaosa",
        "Name[fr]": "Moteur DOC",
        "Name[gl]": "Motor de DOC",
        "Name[ia]": "Retro-Administration de DOC",
        "Name[id]": "Backend DOC",
        "Name[it]": "Motore DOC",
        "Name[ka]": "DOC -ის უკანაბოლო",
        "Name[ko]": "DOC 백엔드",
        "Name[lv]": "DOC aizmugursistēma",
        "Name[nl]": "DOC-backend",
        "Name[pl]": "Silnik DOC",
        "Name[pt]": "Infra-Estrutura para DOC",
        "Name[pt_BR]": "Infraestrutura DOC",
        "Name[ru]": "Модуль поддержки формата DOC",
        "Name[sk]": "DOC Backend",
        "Name[sl]": "Zaledje DOC",
        "Name[sv]": "DOC-gränssnitt",
        "Name[tr]": "DOC Arka Ucu",
        "Name[uk]": "Модуль обробки DOC",
        "Name[x-test]": "xxDOC Backendxx",
        "Name[zh_CN]": "DOC 后端",
        "Name[zh_TW]": "DOC 後端",
        "ServiceTypes": [
            "okular/Generator"
        ],
        "Version": "2.99.5"
    },
    "X-KDE-Priority": 1,
    "X-KDE-okularAPIVersion": 1,
    "X-KDE-okularHasInternalSettings": false
}
