{
    "KPlugin": {
        "Authors": [
            {
                "Email": "calligra-devel@kde.org",
                "Name": "The KSpread Team",
                "Name[ca@valencia]": "L'equip de KSpread",
                "Name[ca]": "L'equip del KSpread",
                "Name[en_GB]": "The KSpread Team",
                "Name[eo]": "La KSpread-Teamo",
                "Name[es]": "El equipo de KSpread",
                "Name[fr]": "L'équipe de KSpread",
                "Name[gl]": "Equipo de KSpread",
                "Name[it]": "La squadra di KSpread",
                "Name[ka]": "KSpread-ის გუნდი",
                "Name[lv]": "„KSpread“ komanda",
                "Name[nl]": "Het team van KSpread",
                "Name[pl]": "Zespół KSpread",
                "Name[sl]": "Ekipa KSpread",
                "Name[tr]": "KSpread Takımı",
                "Name[uk]": "Команда KSpread",
                "Name[x-test]": "xxThe KSpread Teamxx",
                "Name[zh_TW]": "KSpread 團隊"
            }
        ],
        "Category": "FunctionModule",
        "Description": "ACOS, ACOSH, ACOT, ASIN, ASINH, ATAN, ATAN2, ATANH, COS, COSH, DEGREES, PI, RADIANS, SIN, SINH, TAN, TANH",
        "Description[ca@valencia]": "ACOS, ACOSH, ACOT, ASIN, ASINH, ATAN, ATAN2, ATANH, COS, COSH, DEGREES, PI, RADIANS, SIN, SINH, TAN, TANH",
        "Description[ca]": "ACOS, ACOSH, ACOT, ASIN, ASINH, ATAN, ATAN2, ATANH, COS, COSH, DEGREES, PI, RADIANS, SIN, SINH, TAN, TANH",
        "Description[en_GB]": "ACOS, ACOSH, ACOT, ASIN, ASINH, ATAN, ATAN2, ATANH, COS, COSH, DEGREES, PI, RADIANS, SIN, SINH, TAN, TANH",
        "Description[eo]": "ACOS, ACOSH, ACOT, ASIN, ASINH, ATAN, ATAN2, ATANH, COS, COSH, DEGREES, PI, RADIANS, SIN, SINH, TAN, TANH",
        "Description[es]": "ACOS, ACOSH, ACOT, ASIN, ASINH, ATAN, ATAN2, ATANH, COS, COSH, DEGREES, PI, RADIANS, SIN, SINH, TAN, TANH",
        "Description[fr]": "ACOS, ACOSH, ACOT, ASIN, ASINH, ATAN, ATAN2, ATANH, COS, COSH, DEGREES, PI, RADIANS, SIN, SINH, TAN, TANH",
        "Description[gl]": "ACOS, ACOSH, ACOT, ASIN, ASINH, ATAN, ATAN2, ATANH, COS, COSH, DEGREES, PI, RADIANS, SIN, SINH, TAN, TANH.",
        "Description[it]": "ACOS, ACOSH, ACOT, ASIN, ASINH, ATAN, ATAN2, ATANH, COS, COSH, DEGREES, PI, RADIANS, SIN, SINH, TAN, TANH",
        "Description[ka]": "ACOS, ACOSH, ACOT, ASIN, ASINH, ATAN, ATAN2, ATANH, COS, COSH, DEGREES, PI, RADIANS, SIN, SINH, TAN, TANH",
        "Description[lv]": "ACOS, ACOSH, ACOT, ASIN, ASINH, ATAN, ATAN2, ATANH, COS, COSH, DEGREES, PI, RADIANS, SIN, SINH, TAN, TANH",
        "Description[nl]": "ACOS, ACOSH, ACOT, ASIN, ASINH, ATAN, ATAN2, ATANH, COS, COSH, DEGREES, PI, RADIANS, SIN, SINH, TAN, TANH",
        "Description[pl]": "ACOS, ACOSH, ACOT, ASIN, ASINH, ATAN, ATAN2, ATANH, COS, COSH, DEGREES, PI, RADIANS, SIN, SINH, TAN, TANH",
        "Description[sl]": "ACOS, ACOSH, ACOT, ASIN, ASINH, ATAN, ATAN2, ATANH, COS, COSH, DEGREES, PI, RADIANS, SIN, SINH, TAN, TANH",
        "Description[tr]": "ACOS, ACOSH, ACOT, ASIN, ASINH, ATAN, ATAN2, ATANH, COS, COSH, DEGREES, PI, RADIANS, SIN, SINH, TAN, TANH",
        "Description[uk]": "ACOS, ACOSH, ACOT, ASIN, ASINH, ATAN, ATAN2, ATANH, COS, COSH, DEGREES, PI, RADIANS, SIN, SINH, TAN, TANH",
        "Description[x-test]": "xxACOS, ACOSH, ACOT, ASIN, ASINH, ATAN, ATAN2, ATANH, COS, COSH, DEGREES, PI, RADIANS, SIN, SINH, TAN, TANHxx",
        "Description[zh_TW]": "ACOS, ACOSH, ACOT, ASIN, ASINH, ATAN, ATAN2, ATANH, COS, COSH, DEGREES, PI, RADIANS, SIN, SINH, TAN, TANH",
        "EnabledByDefault": true,
        "Icon": "funct",
        "Id": "TrigonometryModule",
        "License": "GPL",
        "Name": "Trigonometry Functions",
        "Name[ca@valencia]": "Funcions trigonomètriques",
        "Name[ca]": "Funcions trigonomètriques",
        "Name[cs]": "Trigonometrické funkce",
        "Name[en_GB]": "Trigonometry Functions",
        "Name[eo]": "Trigonometriaj Funkcioj",
        "Name[es]": "Funciones trigonométricas",
        "Name[fr]": "Fonctions trigonométriques",
        "Name[gl]": "Funcións trigonométricas",
        "Name[it]": "Funzioni trigonometriche",
        "Name[ka]": "ტრიგონომეტრიული ფუნქციები",
        "Name[lv]": "Trigonometrijas funkcijas",
        "Name[nl]": "Trigonometrie-functies",
        "Name[pl]": "Funkcje trygonometryczne",
        "Name[sl]": "Trigonometrijske funkcije",
        "Name[tr]": "Trigonometri İşlevleri",
        "Name[uk]": "Тригонометричні функції",
        "Name[x-test]": "xxTrigonometry Functionsxx",
        "Name[zh_TW]": "三角函數",
        "ServiceTypes": [
            "CalligraSheets/Plugin",
            "KPluginInfo"
        ],
        "Version": "1.0",
        "Website": "http://www.calligra.org/"
    },
    "X-CalligraSheets-InterfaceVersion": "0"
}
